…
* `geography`: The level of geography we want that data in - in our case, tract (we'll go through the meaning and importance of tracts in community research in Week 2.  If you can't wait, check out the Census definition [here](https://www.census.gov/geo/reference/gtc/gtc_ct.html).).  Other geographic options can be found [here](https://walkerke.github.io/tidycensus/articles/basic-usage.html#geography-in-tidycensus). 
* `year`: The end year of the data (because we want 2012-2016, we use 2016).
* `variables`: The variables we want to bring in as specified in a vector you create using the function `c()`. Note that we created variable names of our own (e.g. "nhwhite") and we put the ACS IDs in quotes. ("B03002_003"). Had we not done this, the variable names will come in as they are named in the ACS, which is not all that descriptive.
* `state`: We can filter the tracts to those in a specific state, here it is "CA" - if we don't specify this, we get all tracts in the United States.  There is also a `county` filter.
* `survey`: The specific Census survey were extracting data from.  We want 5-year American Community Survey, so we specify "acs5" - the ACS comes in 1-, 3-, and 5-year varieties (more on this in Week 2 lecture).  

Type in `? get_acs()` to see the full list of options. If you type in *ca* in your console, you should see a tibble pop up with the variables we selected. Cool, right?


```r
ca
```

```
## # A tibble: 40,285 x 5
##    GEOID      NAME                                 variable estimate   moe
##    <chr>      <chr>                                <chr>       <dbl> <dbl>
##  1 060014001… Census Tract 4001, Alameda County, … tpopr        3018   195
##  2 060014001… Census Tract 4001, Alameda County, … nhwhite      2145   192
##  3 060014001… Census Tract 4001, Alameda County, … nhblk          92    54
##  4 060014001… Census Tract 4001, Alameda County, … nhasn         491   144
##  5 060014001… Census Tract 4001, Alameda County, … hisp           83    57
##  6 060014002… Census Tract 4002, Alameda County, … tpopr        1960    94
##  7 060014002… Census Tract 4002, Alameda County, … nhwhite      1426   131
##  8 060014002… Census Tract 4002, Alameda County, … nhblk          11    12
##  9 060014002… Census Tract 4002, Alameda County, … nhasn         165    54
## 10 060014002… Census Tract 4002, Alameda County, … hisp          211    67
## # ... with 40,275 more rows
```
…
```
## [1] "GEOID"    "NAME"     "variable" "estimate" "moe"
```

Let's keep *GEOID*, *NAME*, *variable*, and *estimate* from the *ca* dataset.


```r
select(ca, GEOID, NAME, variable, estimate)
```

```
## # A tibble: 40,285 x 4
##    GEOID       NAME                                      variable estimate
##    <chr>       <chr>                                     <chr>       <dbl>
##  1 06001400100 Census Tract 4001, Alameda County, Calif… tpopr        3018
##  2 06001400100 Census Tract 4001, Alameda County, Calif… nhwhite      2145
##  3 06001400100 Census Tract 4001, Alameda County, Calif… nhblk          92
##  4 06001400100 Census Tract 4001, Alameda County, Calif… nhasn         491
##  5 06001400100 Census Tract 4001, Alameda County, Calif… hisp           83
##  6 06001400200 Census Tract 4002, Alameda County, Calif… tpopr        1960
##  7 06001400200 Census Tract 4002, Alameda County, Calif… nhwhite      1426
##  8 06001400200 Census Tract 4002, Alameda County, Calif… nhblk          11
##  9 06001400200 Census Tract 4002, Alameda County, Calif… nhasn         165
## 10 06001400200 Census Tract 4002, Alameda County, Calif… hisp          211
## # ... with 40,275 more rows
```

A shortcut way of doing this is to use the `:` operator.  


```r
select(ca, GEOID:estimate)
```

```
## # A tibble: 40,285 x 4
##    GEOID       NAME                                      variable estimate
##    <chr>       <chr>                                     <chr>       <dbl>
##  1 06001400100 Census Tract 4001, Alameda County, Calif… tpopr        3018
##  2 06001400100 Census Tract 4001, Alameda County, Calif… nhwhite      2145
##  3 06001400100 Census Tract 4001, Alameda County, Calif… nhblk          92
##  4 06001400100 Census Tract 4001, Alameda County, Calif… nhasn         491
##  5 06001400100 Census Tract 4001, Alameda County, Calif… hisp           83
##  6 06001400200 Census Tract 4002, Alameda County, Calif… tpopr        1960
##  7 06001400200 Census Tract 4002, Alameda County, Calif… nhwhite      1426
##  8 06001400200 Census Tract 4002, Alameda County, Calif… nhblk          11
##  9 06001400200 Census Tract 4002, Alameda County, Calif… nhasn         165
## 10 06001400200 Census Tract 4002, Alameda County, Calif… hisp          211
## # ... with 40,275 more rows
```
…
Tidying up a dataset means following the rules outlined on page 149 of RDS: (1) Each variable must have its own column, (2) each observation must have its own row, and (3) each value must have its own cell. The dataset *nhgisfile1* looks "tidy", but the dataset *ca1* is not.  Why?

We'll need to "spread" the dataset. This will convert the dataset from long to wide.  Use the function `spread()` and save the tidy dataset back into *ca1*. 


```r
ca1 <- spread(ca1, key = variable, value = estimate)
ca1
```

```
## # A tibble: 8,057 x 7
##    GEOID     NAME                           hisp nhasn nhblk nhwhite tpopr
##    <chr>     <chr>                         <dbl> <dbl> <dbl>   <dbl> <dbl>
##  1 06001400… Census Tract 4001, Alameda C…    83   491    92    2145  3018
##  2 06001400… Census Tract 4002, Alameda C…   211   165    11    1426  1960
##  3 06001400… Census Tract 4003, Alameda C…   386   599   606    3346  5236
##  4 06001400… Census Tract 4004, Alameda C…   266   458   410    2758  4171
##  5 06001400… Census Tract 4005, Alameda C…   486   140   944    1972  3748
##  6 06001400… Census Tract 4006, Alameda C…   158   116   584     636  1661
##  7 06001400… Census Tract 4007, Alameda C…   752   119  1691    1700  4552
##  8 06001400… Census Tract 4008, Alameda C…   421   436  1093    1390  3506
##  9 06001400… Census Tract 4009, Alameda C…   264   188   734     899  2262
## 10 06001401… Census Tract 4010, Alameda C…  1380   194  2057    1914  6193
## # ... with 8,047 more rows
```
…
