…
The name *Estimated median income of a household, between 2014-2018.* is super duper long! Use the command `rename()` to - what else? - rename a variable!  Let's rename *Estimated median income of a household, between 2014-2018.* to *medinc*.  


```r
rename(ca.pm, medinc = "Estimated median income of a household, between 2014-2018.")
```

```
## # A tibble: 58 x 4
##    `FIPS Code` County         `Formatted FIPS` medinc
##          <dbl> <chr>          <chr>             <dbl>
##  1        6071 San Bernardino 06071             60164
##  2        6027 Inyo           06027             52874
##  3        6029 Kern           06029             52479
##  4        6093 Siskiyou       06093             44200
##  5        6065 Riverside      06065             63948
##  6        6019 Fresno         06019             51261
##  7        6035 Lassen         06035             56362
##  8        6049 Modoc          06049             45149
##  9        6107 Tulare         06107             47518
## 10        6023 Humboldt       06023             45528
## # … with 48 more rows
```
…
</center>


Let's keep *County*, *GEOID*, and *medinc* from the *ca.pm* dataset.


```r
select(ca.pm, County, GEOID, medinc)
```

```
## # A tibble: 58 x 3
##    County         GEOID medinc
##    <chr>          <chr>  <dbl>
##  1 San Bernardino 06071  60164
##  2 Inyo           06027  52874
##  3 Kern           06029  52479
##  4 Siskiyou       06093  44200
##  5 Riverside      06065  63948
##  6 Fresno         06019  51261
##  7 Lassen         06035  56362
##  8 Modoc          06049  45149
##  9 Tulare         06107  47518
## 10 Humboldt       06023  45528
## # … with 48 more rows
```

A shortcut way of doing this is to use the `:` operator.  


```r
select(ca.pm, County:medinc)
```

```
## # A tibble: 58 x 3
##    County         GEOID medinc
##    <chr>          <chr>  <dbl>
##  1 San Bernardino 06071  60164
##  2 Inyo           06027  52874
##  3 Kern           06029  52479
##  4 Siskiyou       06093  44200
##  5 Riverside      06065  63948
##  6 Fresno         06019  51261
##  7 Lassen         06035  56362
##  8 Modoc          06049  45149
##  9 Tulare         06107  47518
## 10 Humboldt       06023  45528
## # … with 48 more rows
```
…
