Lab 5b: Spatial Accessibility in Mapbox
…
isos <- mb_isochrone(
  location = "2315 Stockton Blvd, Sacramento, CA 95817",
  profile = "driving",
  time = 1:45
)

isos

## Simple feature collection with 45 features and 1 field
## geometry type:  POLYGON
## dimension:      XY
## bbox:           xmin: -122.0623 ymin: 38.02723 xmax: -120.745 ymax: 39.1379
## geographic CRS: WGS 84
## # A tibble: 45 x 2
##     time                                                                geometry
##    <int>                                                           <POLYGON [°]>
##  1    45 ((-121.5902 39.13736, -121.5861 39.13251, -121.582 39.13139, -121.5801…
##  2    44 ((-121.5849 39.13071, -121.5839 39.12869, -121.5769 39.1276, -121.5731…
##  3    43 ((-121.5699 39.12168, -121.5691 39.11951, -121.564 39.11962, -121.558 …
##  4    42 ((-121.5547 39.10989, -121.5388 39.0958, -121.537 39.08459, -121.534 3…
##  5    41 ((-121.5459 39.10065, -121.5452 39.09841, -121.5426 39.098, -121.539 3…
##  6    40 ((-121.5426 39.08593, -121.54 39.08532, -121.5377 39.0766, -121.5389 3…
##  7    39 ((-121.54 39.07245, -121.5404 39.065, -121.544 39.0646, -121.5453 39.0…
##  8    38 ((-121.543 39.0567, -121.5444 39.0346, -121.5478 39.0316, -121.549 39.…
##  9    37 ((-121.543 39.04095, -121.544 39.03265, -121.5471 39.0316, -121.5481 3…
## 10    36 ((-121.546 39.02661, -121.5475 39.0226, -121.5471 39.01769, -121.5443 …
## # … with 35 more rows
…
