…
isos
```

```
## Simple feature collection with 45 features and 1 field
## geometry type:  POLYGON
## dimension:      XY
## bbox:           xmin: -122.065 ymin: 38.02208 xmax: -120.7342 ymax: 39.13842
## geographic CRS: WGS 84
## # A tibble: 45 x 2
##     time                                                                geometry
##    <int>                                                           <POLYGON [°]>
##  1    45 ((-121.5899 39.13766, -121.586 39.13258, -121.5722 39.12836, -121.57 3…
##  2    44 ((-121.5846 39.13096, -121.5832 39.12939, -121.5761 39.1276, -121.5722…
##  3    43 ((-121.5697 39.12186, -121.5685 39.12011, -121.564 39.11986, -121.5564…
##  4    42 ((-121.5578 39.11272, -121.5572 39.11041, -121.5546 39.11001, -121.538…
##  5    41 ((-121.5458 39.10082, -121.5448 39.09879, -121.5388 39.0946, -121.5383…
##  6    40 ((-121.54 39.08868, -121.5402 39.08581, -121.5433 39.08527, -121.5406 …
##  7    39 ((-121.54 39.07361, -121.5403 39.06792, -121.5441 39.0646, -121.5454 3…
##  8    38 ((-121.543 39.05786, -121.5444 39.0346, -121.5479 39.0316, -121.549 39…
##  9    37 ((-121.543 39.04212, -121.5442 39.03278, -121.5472 39.0316, -121.5482 …
## 10    36 ((-121.546 39.02773, -121.5479 39.0226, -121.547 39.0166, -121.5438 39…
## # … with 35 more rows
```
…
