Lab 6a: Residential Segregation
…
The group_by() function tells R that all future functions on large.tracts will be grouped according to the variable NAME, which is the metro name. We use the sum() function within the mutate() function to sum up, for example, the non-Hispanic white population nhwhite for each metro. We name this variable nhwhitec. If you type in View(large.tracts), you should find that the variable nhwhitec provides the same value for all tracts within the same metro. We do this for all the other race/ethnic groups.

The function ungroup() at the end of the code tells R to stop the grouping. For example, we see the results after grouping by NAME

large.tracts %>%
    group_by(NAME)

## Simple feature collection with 5910 features and 27 fields
## geometry type:  MULTIPOLYGON
## dimension:      XY
## bbox:           xmin: -123.0241 ymin: 32.53416 xmax: -114.1312 ymax: 38.32121
## geographic CRS: NAD83
## # A tibble: 5,910 x 28
## # Groups:   NAME [6]
##    GEOID.x    tpop tpopr pnhwhite pnhasn  pnhblk phisp nhwhite nhasn nhblk  hisp
##    <chr>     <dbl> <dbl>    <dbl>  <dbl>   <dbl> <dbl>   <dbl> <dbl> <dbl> <dbl>
##  1 06013370…  2850  2850  0.433   0.189  1.30e-1 0.195    1235   540   371   557
##  2 06001442…  5496  5496  0.176   0.546  3.89e-2 0.184     969  3000   214  1010
##  3 06037405…  5617  5617  0.0324  0.196  8.37e-3 0.761     182  1100    47  4272
##  4 06037199…  5828  5828  0.0130  0.364  1.72e-4 0.623      76  2120     1  3631
##  5 06037291…  3037  3037  0.147   0.433  9.52e-2 0.246     447  1316   289   748
##  6 06037292…  6567  6567  0.0754  0.177  1.07e-1 0.554     495  1163   701  3639
##  7 06037604…  4856  4856  0.192   0.147  7.68e-2 0.550     933   715   373  2670
##  8 06037920…  6895  6895  0.332   0.111  1.38e-2 0.514    2288   765    95  3544
##  9 06037402…  5558  5558  0.0419  0.0768 7.66e-2 0.789     233   427   426  4387
## 10 06037542…  5934  5934  0.00758 0      2.18e-1 0.770      45     0  1294  4567
## # … with 5,900 more rows, and 17 more variables: nonwhite <dbl>,
## #   pnonwhite <dbl>, oth <dbl>, poth <dbl>, CSAFP <chr>, CBSAFP <chr>,
## #   GEOID.y <chr>, NAME <chr>, LSAD <chr>, geometry <MULTIPOLYGON [°]>,
## #   nhwhitec <dbl>, nonwhitec <dbl>, nhasnc <dbl>, nhblkc <dbl>, othc <dbl>,
## #   hispc <dbl>, tpoprc <dbl>

that the tibble large.tracts is grouped (Groups: NAME [6]), which represents the 6 metro areas. Use ungroup() to, well, ungroup the tibble.

large.tracts %>%
    group_by(NAME) %>%
    ungroup()

## Simple feature collection with 5910 features and 27 fields
## geometry type:  MULTIPOLYGON
## dimension:      XY
## bbox:           xmin: -123.0241 ymin: 32.53416 xmax: -114.1312 ymax: 38.32121
## geographic CRS: NAD83
## # A tibble: 5,910 x 28
##    GEOID.x    tpop tpopr pnhwhite pnhasn  pnhblk phisp nhwhite nhasn nhblk  hisp
##    <chr>     <dbl> <dbl>    <dbl>  <dbl>   <dbl> <dbl>   <dbl> <dbl> <dbl> <dbl>
##  1 06013370…  2850  2850  0.433   0.189  1.30e-1 0.195    1235   540   371   557
##  2 06001442…  5496  5496  0.176   0.546  3.89e-2 0.184     969  3000   214  1010
##  3 06037405…  5617  5617  0.0324  0.196  8.37e-3 0.761     182  1100    47  4272
##  4 06037199…  5828  5828  0.0130  0.364  1.72e-4 0.623      76  2120     1  3631
##  5 06037291…  3037  3037  0.147   0.433  9.52e-2 0.246     447  1316   289   748
##  6 06037292…  6567  6567  0.0754  0.177  1.07e-1 0.554     495  1163   701  3639
##  7 06037604…  4856  4856  0.192   0.147  7.68e-2 0.550     933   715   373  2670
##  8 06037920…  6895  6895  0.332   0.111  1.38e-2 0.514    2288   765    95  3544
##  9 06037402…  5558  5558  0.0419  0.0768 7.66e-2 0.789     233   427   426  4387
## 10 06037542…  5934  5934  0.00758 0      2.18e-1 0.770      45     0  1294  4567
## # … with 5,900 more rows, and 17 more variables: nonwhite <dbl>,
## #   pnonwhite <dbl>, oth <dbl>, poth <dbl>, CSAFP <chr>, CBSAFP <chr>,
## #   GEOID.y <chr>, NAME <chr>, LSAD <chr>, geometry <MULTIPOLYGON [°]>,
## #   nhwhitec <dbl>, nonwhitec <dbl>, nhasnc <dbl>, nhblkc <dbl>, othc <dbl>,
## #   hispc <dbl>, tpoprc <dbl>
…
