Lab 8: Multilevel Models
…
We find that the percent foreign born and Hispanic mobility rate coefficients flip - the former is now associated with a lower Hispanic household income whereas the latter is associated with a higher income. The metro level unemployment rate, log Hispanic household income and Hispanic/white segregation are associated with higher tract-level Hispanic household income whereas foreign-born/native-born segregation is associated with a lower income.

Fixed effects regression

A metro fixed effects regression specification controls for all metro-level characteristics that may be confounding the relationship between tract-level variables and the change in Hispanic household income. It also controls for spatial autocorrelation between tracts within metropolitan areas.

We can run a fixed effects regression using the lm() function by including the metro indicator as a factor variable on the right hand side of the equation. A factor variable treats the values as categories, such as male and female for gender or college educated, high school only educated, and non high school educated for educational attainment. Use the function factor() on the metro indicators GEOIDm within the lm() function.

fe.int.model1 <- lm(lhinc ~ concd  +pfb + phhown   +phmov + phisp + factor(GEOIDm),
     data = ca.metro.tracts)
tidy(fe.int.model1)

## # A tibble: 31 x 5
##    term                 estimate std.error statistic   p.value
##    <chr>                   <dbl>     <dbl>     <dbl>     <dbl>
##  1 (Intercept)          10.7       0.0296   361.     0.       
##  2 concd                -0.199     0.00663  -30.0    9.89e-188
##  3 pfb                  -0.208     0.0340    -6.11   1.04e-  9
##  4 phhown                0.713     0.0153    46.6    0.       
##  5 phmov                 0.0349    0.0331     1.05   2.92e-  1
##  6 phisp                -0.312     0.0204   -15.3    3.09e- 52
##  7 factor(GEOIDm)17020  -0.312     0.0500    -6.24   4.73e- 10
##  8 factor(GEOIDm)20940   0.00339   0.0607     0.0559 9.55e-  1
##  9 factor(GEOIDm)23420  -0.00355   0.0331    -0.107  9.15e-  1
## 10 factor(GEOIDm)25260   0.00680   0.0641     0.106  9.16e-  1
## # … with 21 more rows
…
